<svg width="58" height="58" viewBox="0 0 58 58" fill="none" xmlns="http://www.w3.org/2000/svg">
<g clip-path="url(#clip0)">
<path d="M15.8446 42.1555C8.57898 34.8899 8.57898 23.1101 15.8445 15.8445C23.1101 8.57896 34.8899 8.57896 42.1555 15.8445C49.4211 23.1101 49.4211 34.8899 42.1555 42.1555C34.8899 49.421 23.1101 49.421 15.8446 42.1555Z" stroke="black" stroke-width="2.5" stroke-miterlimit="10" stroke-linecap="round" stroke-linejoin="round"/>
<path d="M22.4223 35.5777C18.7895 31.9449 18.7895 26.055 22.4223 22.4223C26.0551 18.7895 31.945 18.7895 35.5778 22.4223C39.2105 26.055 39.2106 31.945 35.5778 35.5777C31.945 39.2105 26.0551 39.2105 22.4223 35.5777Z" stroke="black" stroke-width="2.5" stroke-miterlimit="10" stroke-linecap="round" stroke-linejoin="round"/>
<path d="M22.4223 35.5778L33.8018 46.9573" stroke="black" stroke-width="2.5" stroke-miterlimit="10" stroke-linecap="round" stroke-linejoin="round"/>
<path d="M35.5778 35.5777L46.9572 24.1982" stroke="black" stroke-width="2.5" stroke-miterlimit="10" stroke-linecap="round" stroke-linejoin="round"/>
<path d="M35.5778 22.4224L24.1983 11.0429" stroke="black" stroke-width="2.5" stroke-miterlimit="10" stroke-linecap="round" stroke-linejoin="round"/>
<path d="M22.4223 22.4224L11.0428 33.8019" stroke="black" stroke-width="2.5" stroke-miterlimit="10" stroke-linecap="round" stroke-linejoin="round"/>
</g>
<defs>
<clipPath id="clip0">
<rect width="40" height="40" fill="white" transform="matrix(-0.707107 -0.707107 -0.707107 0.707107 57.2843 29)"/>
</clipPath>
</defs>
</svg>
